{
  "summary": "Backend testing complete for VIP Social and AI features. All 20 tests PASSED. Verified: POST /api/vip/social/posts/create (with/without images), GET /api/vip/social/feed/enhanced, POST /api/vip/ai/analyze-image (GPT-4o Vision), GET/POST /api/vip/social/posts/{post_id}/comments",
  "backend_issues": {
    "critical": [],
    "minor": []
  },
  "frontend_issues": {
    "ui_bugs": [],
    "integration_issues": [],
    "design_issues": []
  },
  "test_report_links": [
    "/app/backend/tests/test_vip_social_ai_features.py",
    "/app/test_reports/pytest/pytest_vip_social_ai.xml"
  ],
  "action_items": [],
  "critical_code_review_comments": [
    "All requested endpoints fully functional",
    "POST /api/vip/social/posts/create correctly handles: content (max 1000 chars), image_base64 (optional), crypto_mentions array",
    "GET /api/vip/social/feed/enhanced returns all required fields: id, author_name, content, crypto_mentions, has_image, image_url, likes, comments_count, is_liked, is_vip, created_at",
    "POST /api/vip/ai/analyze-image uses GPT-4o Vision via emergentintegrations - REAL API, NOT MOCKED",
    "Comments endpoints (GET/POST) work correctly with proper 404 for non-existent posts",
    "All VIP endpoints correctly require authentication (401/403 for unauthenticated requests)",
    "Content length validation working (400 for >1000 chars)"
  ],
  "updated_files": [
    "/app/backend/tests/test_vip_social_ai_features.py"
  ],
  "success_rate": {
    "backend": "100% (20 passed, 0 failed)"
  },
  "test_credentials": {
    "email": "admin@cryptonai.com",
    "password": "Admin123!",
    "role": "super_admin",
    "is_vip": true
  },
  "seed_data_creation": "Test posts created during testing with UUIDs for easy identification",
  "retest_needed": false,
  "should_main_agent_self_test": false,
  "context_for_next_testing_agent": "All VIP Social and AI endpoints are functional. GPT-4o Vision integration is working via emergentintegrations (real API). Image upload stores base64 in MongoDB. Enhanced feed includes all image-related fields.",
  "api_endpoints_tested": [
    {
      "endpoint": "POST /api/vip/social/posts/create",
      "status": "200 OK",
      "payload": {"content": "string", "image_base64": "optional string", "crypto_mentions": "array"},
      "result": "Creates posts with optional images, stores image in post_images collection"
    },
    {
      "endpoint": "GET /api/vip/social/feed/enhanced",
      "status": "200 OK",
      "params": {"skip": "int", "limit": "int"},
      "result": "Returns paginated feed with has_image, image_url, crypto_mentions, is_liked fields"
    },
    {
      "endpoint": "POST /api/vip/ai/analyze-image",
      "status": "200 OK",
      "payload": {"query": "string (required)", "image_base64": "string (required)", "analysis_type": "string (default: general)"},
      "result": "GPT-4o Vision analyzes image, returns detailed analysis in French"
    },
    {
      "endpoint": "GET /api/vip/social/posts/{post_id}/comments",
      "status": "200 OK",
      "result": "Returns list of comments with author_name, is_vip, content, created_at"
    },
    {
      "endpoint": "POST /api/vip/social/posts/{post_id}/comments",
      "status": "200 OK / 404",
      "params": {"content": "string"},
      "result": "Adds comment to post, returns 404 for non-existent post"
    }
  ],
  "sample_api_responses": {
    "enhanced_feed": {
      "success": true,
      "data": [
        {
          "id": "uuid",
          "author_name": "Super Admin",
          "content": "test content",
          "crypto_mentions": ["ETH", "SOL"],
          "has_image": true,
          "image_url": "/api/vip/social/posts/{id}/image",
          "likes": 0,
          "comments_count": 1,
          "is_liked": false,
          "is_vip": true
        }
      ],
      "pagination": {"total": 10, "skip": 0, "limit": 3, "has_more": true}
    },
    "ai_analyze_image": {
      "success": true,
      "data": {
        "analysis": "L'image est entièrement rouge uni...",
        "analysis_type": "test",
        "has_image": true,
        "timestamp": "2026-02-23T00:11:25.332213+00:00"
      }
    }
  },
  "mocked_apis_note": "NO MOCKED APIs - GPT-4o Vision integration is REAL via emergentintegrations library with EMERGENT_LLM_KEY"
}
